{
  "interface": "https://schema.skao.int/ska-oso-pdm-sbd/0.1",
  "sbd_id": "sbi-mvp01-20200325-00001",
  "telescope": "ska_low",
  "metadata": {
    "version": 1,
    "created_by": "Liz Bartlett",
    "created_on": "2022-03-28T15:43:53.971548",
    "last_modified_by": null,
    "last_modified_on": null
  },
  "activities": {
    "allocate": {
      "kind": "filesystem",
      "path": "/path/to/allocatescript.py",
      "function_args": {
        "init": {
          "args": ["posarg1", "posarg2"],
          "kwargs": {
            "argname": "argval"
          }
        },
        "run": {
          "args": ["posarg1", "posarg2"],
          "kwargs": {
            "argname": "argval"
          }
        }
      }
    },
    "observe": {
      "kind": "git",
      "path": "/relative/path/to/scriptinsiderepo.py",
      "repo": "https://gitlab.com/script_repo/operational_scripts",
      "branch": "main",
      "commit": "d234c257dadd18b3edcd990b8194c6ad94fc278a",
      "function_args": {
        "init": {
          "args": ["posarg1", "posarg2"],
          "kwargs": {
            "argname": "argval"
          }
        },
        "run": {
          "args": ["posarg1", "posarg2"],
          "kwargs": {
            "argname": "argval"
          }
        }
      }
    }
  },
  "scan_definitions": [
    {
      "scan_definition_id": "sbi-mvp01-20220328-00001",
      "scan_duration": 64000,
      "target_beam_configurations": ["target #1 with beam A config 1"],
      "target": "target field"
    },
    {
      "scan_definition_id": "sbi-mvp01-20220328-00002",
      "scan_duration": 64000,
      "target_beam_configurations": ["target #2 with beam A config 1"],
      "target": "target field"
    }
  ],
  "scan_sequence": [
    "sbi-mvp01-20220328-00001",
    "sbi-mvp01-20220328-00002",
    "sbi-mvp01-20220328-00002",
    "sbi-mvp01-20220328-00001"
  ],

  "targets": [
    {
      "target_id": "target #1",
      "reference_coordinate": { "kind": "sso" },
      "pointing_pattern": {
        "active": "CrossScanParameters",
        "parameters": [
          {
            "kind": "CrossScanParameters",
            "unidirectional": false,
            "offset_arcsec": 12
          }
        ]
      }
    },
    {
      "target_id": "target #2",
      "reference_coordinate": {
        "kind": "horizontal",
        "reference_frame": "ALTAZ",
        "az": 45,
        "el": 67
      },
      "pointing_pattern": {
        "active": "RasterParameters",
        "parameters": [
          {
            "kind": "RasterParameters",
            "row_length_arcsec": 123,
            "row_offset_arcsec": 456,
            "n_rows": 78
          }
        ]
      }
    }
  ],
  "dish_configurations": [],
  "dish_allocations": null,
  "mccs_allocation": {
    "subarray_beam_ids": ["beam A"],
    "station_ids": [[1, 2]],
    "channel_blocks": [1]
  },
  "target_beam_configurations": [
    {
      "target_beam_id": "target #1 with beam A config 1",
      "target": "target #1",
      "subarray_beam_configuration": "beam A config 1"
    },
    {
      "target_beam_id": "target #2 with beam A config 1",
      "target": "target #2",
      "subarray_beam_configuration": "beam A config 1"
    }
  ],
  "csp_configurations": [],
  "sdp_configuration": null,
  "subarray_beam_configurations": [
    {
      "subarray_beam_configuration_id": "beam A config 1",
      "subarray_beam_id": "beam A",
      "update_rate": 0.0,
      "antenna_weights": [1.0, 1.0, 1.0],
      "phase_centre": [0.0, 0.0],
      "channels": [
        [0, 8, 1, 1],
        [8, 8, 2, 1]
      ]
    }
  ]
}
